{
  "application": {
    "port": 3003,
    "maxNameLength": 50,
    "maxSubjectLength": 40,
    "maxMessageLength": 500
  },
  "database": {
    "name": "customer_communication_service",
    "user": "user",
    "password": "Test1234",
    "host": "localhost",
    "port": 5432,
    "connectionTimeout": 5,
    "sslMode": "disable",
    "sslCertificate": "",
    "sslKey": "",
    "sslRootCertificate": ""
  },
  "smtp": {
    "contactAddress": "",
    "credentials": {
      "username": "",
      "password": ""
    },
    "gateway": "localhost",
    "port": 2525
  }
}